{
	"info": {
		"_postman_id": "48cf8815-7ee8-4157-bb1a-7045b895b4db",
		"name": "Lambda TypeScript Seed",
		"schema": "https://schema.getpostman.com/json/collection/v2.1.0/collection.json"
	},
	"item": [
		{
			"name": "Register IP",
			"request": {
				"method": "POST",
				"header": [
					{
						"key": "Content-Type",
						"name": "Content-Type",
						"value": "application/json",
						"type": "text"
					},
					{
						"key": "x-api-key",
						"value": "d41d8cd98f00b204e9800998ecf8427e",
						"type": "text"
					}
				],
				"body": {
					"mode": "raw",
					"raw": "{\"source\": \"fivestarhomevalue\"}"
				},
				"url": {
					"raw": "http://localhost:3005/register-ip",
					"protocol": "http",
					"host": [
						"localhost"
					],
					"port": "3005",
					"path": [
						"register-ip"
					]
				}
			},
			"response": []
		},
		{
			"name": "Incoming Lead Parse",
			"request": {
				"method": "POST",
				"header": [
					{
						"key": "Content-Type",
						"name": "Content-Type",
						"value": "application/json",
						"type": "text"
					}
				],
				"body": {
					"mode": "raw",
					"raw": "{\n \"ipAddress\": \"127.0.0.1\"\n}"
				},
				"url": {
					"raw": "http://localhost:3005/parse",
					"protocol": "http",
					"host": [
						"localhost"
					],
					"port": "3005",
					"path": [
						"parse"
					]
				}
			},
			"response": []
		}
	]
}